%!PS-Adobe-3.0 EPSF-3.0
%%Title: generative-proof.fig
%%Creator: fig2dev Version 3.2 Patchlevel 5e
%%CreationDate: Mon Jul 30 23:34:30 2018
%%BoundingBox: 0 0 227 74
%Magnification: 0.7000
%%EndComments
%%BeginProlog
/$F2psDict 200 dict def
$F2psDict begin
$F2psDict /mtrx matrix put
/col-1 {0 setgray} bind def
/col0 {0.000 0.000 0.000 srgb} bind def
/col1 {0.000 0.000 1.000 srgb} bind def
/col2 {0.000 1.000 0.000 srgb} bind def
/col3 {0.000 1.000 1.000 srgb} bind def
/col4 {1.000 0.000 0.000 srgb} bind def
/col5 {1.000 0.000 1.000 srgb} bind def
/col6 {1.000 1.000 0.000 srgb} bind def
/col7 {1.000 1.000 1.000 srgb} bind def
/col8 {0.000 0.000 0.560 srgb} bind def
/col9 {0.000 0.000 0.690 srgb} bind def
/col10 {0.000 0.000 0.820 srgb} bind def
/col11 {0.530 0.810 1.000 srgb} bind def
/col12 {0.000 0.560 0.000 srgb} bind def
/col13 {0.000 0.690 0.000 srgb} bind def
/col14 {0.000 0.820 0.000 srgb} bind def
/col15 {0.000 0.560 0.560 srgb} bind def
/col16 {0.000 0.690 0.690 srgb} bind def
/col17 {0.000 0.820 0.820 srgb} bind def
/col18 {0.560 0.000 0.000 srgb} bind def
/col19 {0.690 0.000 0.000 srgb} bind def
/col20 {0.820 0.000 0.000 srgb} bind def
/col21 {0.560 0.000 0.560 srgb} bind def
/col22 {0.690 0.000 0.690 srgb} bind def
/col23 {0.820 0.000 0.820 srgb} bind def
/col24 {0.500 0.190 0.000 srgb} bind def
/col25 {0.630 0.250 0.000 srgb} bind def
/col26 {0.750 0.380 0.000 srgb} bind def
/col27 {1.000 0.500 0.500 srgb} bind def
/col28 {1.000 0.630 0.630 srgb} bind def
/col29 {1.000 0.750 0.750 srgb} bind def
/col30 {1.000 0.880 0.880 srgb} bind def
/col31 {1.000 0.840 0.000 srgb} bind def

end

/cp {closepath} bind def
/ef {eofill} bind def
/gr {grestore} bind def
/gs {gsave} bind def
/sa {save} bind def
/rs {restore} bind def
/l {lineto} bind def
/m {moveto} bind def
/rm {rmoveto} bind def
/n {newpath} bind def
/s {stroke} bind def
/sh {show} bind def
/slc {setlinecap} bind def
/slj {setlinejoin} bind def
/slw {setlinewidth} bind def
/srgb {setrgbcolor} bind def
/rot {rotate} bind def
/sc {scale} bind def
/sd {setdash} bind def
/ff {findfont} bind def
/sf {setfont} bind def
/scf {scalefont} bind def
/sw {stringwidth} bind def
/tr {translate} bind def
/tnt {dup dup currentrgbcolor
  4 -2 roll dup 1 exch sub 3 -1 roll mul add
  4 -2 roll dup 1 exch sub 3 -1 roll mul add
  4 -2 roll dup 1 exch sub 3 -1 roll mul add srgb}
  bind def
/shd {dup dup currentrgbcolor 4 -2 roll mul 4 -2 roll mul
  4 -2 roll mul srgb} bind def
/$F2psBegin {$F2psDict begin /$F2psEnteredState save def} def
/$F2psEnd {$F2psEnteredState restore end} def

/pageheader {
save
newpath 0 74 moveto 0 0 lineto 227 0 lineto 227 74 lineto closepath clip newpath
-68.8 137.8 translate
1 -1 scale
$F2psBegin
10 setmiterlimit
0 slj 0 slc
 0.04409 0.04409 sc
} bind def
/pagefooter {
$F2psEnd
restore
} bind def
%%EndProlog
pageheader
%
% Fig objects follow
%
% 
% here starts figure with depth 50
% Polyline
0 slj
0 slc
15.000 slw
gs  clippath
4715 1763 m 4843 1682 l 4811 1631 l 4683 1713 l 4683 1713 l 4801 1674 l 4715 1763 l cp
eoclip
n 4320 1980 m
 4815 1665 l gs col15 s gr gr

% arrowhead
7.500 slw
n 4715 1763 m 4801 1674 l 4683 1713 l  col15 s
% Polyline
15.000 slw
gs  clippath
4683 2304 m 4811 2386 l 4843 2335 l 4715 2254 l 4715 2254 l 4801 2344 l 4683 2304 l cp
eoclip
n 4320 2038 m
 4815 2353 l gs col15 s gr gr

% arrowhead
7.500 slw
n 4683 2304 m 4801 2344 l 4715 2254 l  col15 s
% Polyline
15.000 slw
 [60] 0 sd
gs  clippath
3450 1802 m 3450 1650 l 3390 1650 l 3390 1802 l 3390 1802 l 3420 1682 l 3450 1802 l cp
eoclip
n 3420 2295 m
 3420 1665 l gs col15 s gr gr
 [] 0 sd
% arrowhead
7.500 slw
n 3450 1802 m 3420 1682 l 3390 1802 l  col15 s
% Polyline
15.000 slw
gs  clippath
2060 1763 m 2188 1682 l 2156 1631 l 2028 1713 l 2028 1713 l 2146 1674 l 2060 1763 l cp
eoclip
n 1665 1980 m
 2160 1665 l gs col15 s gr gr

% arrowhead
7.500 slw
n 2060 1763 m 2146 1674 l 2028 1713 l  col15 s
% Polyline
15.000 slw
gs  clippath
2028 2304 m 2156 2386 l 2188 2335 l 2060 2254 l 2060 2254 l 2146 2344 l 2028 2304 l cp
eoclip
n 1665 2038 m
 2160 2353 l gs col15 s gr gr

% arrowhead
7.500 slw
n 2028 2304 m 2146 2344 l 2060 2254 l  col15 s
% Polyline
15.000 slw
 [60] 0 sd
gs  clippath
2370 1802 m 2370 1650 l 2310 1650 l 2310 1802 l 2310 1802 l 2340 1682 l 2370 1802 l cp
eoclip
n 2340 2295 m
 2340 1665 l gs col15 s gr gr
 [] 0 sd
% arrowhead
7.500 slw
n 2370 1802 m 2340 1682 l 2310 1802 l  col15 s
% Polyline
15.000 slw
 [60] 0 sd
gs  clippath
5970 1802 m 5970 1650 l 5910 1650 l 5910 1802 l 5910 1802 l 5940 1682 l 5970 1802 l cp
eoclip
n 5940 2295 m
 5940 1665 l gs col15 s gr gr
 [] 0 sd
% arrowhead
7.500 slw
n 5970 1802 m 5940 1682 l 5910 1802 l  col15 s
/Times-Roman ff 190.50 scf sf
4230 2070 m
gs 1 -1 sc ($I$) dup sw pop neg 0 rm  col0 sh gr
/Times-Roman ff 190.50 scf sf
4860 1620 m
gs 1 -1 sc ($A_I$) col0 sh gr
/Times-Roman ff 190.50 scf sf
4860 2520 m
gs 1 -1 sc ($P_I$) col0 sh gr
/Times-Roman ff 158.75 scf sf
4590 2160 m
gs 1 -1 sc ($G$) col0 sh gr
/Times-Roman ff 158.75 scf sf
3465 2295 m
gs 1 -1 sc ($R$) col15 sh gr
/Times-Roman ff 190.50 scf sf
3420 1620 m
gs 1 -1 sc ($B[U]$) dup sw pop 2 div neg 0 rm  col0 sh gr
/Times-Roman ff 190.50 scf sf
3420 2520 m
gs 1 -1 sc ($Q[V]$) dup sw pop 2 div neg 0 rm  col0 sh gr
/Times-Roman ff 190.50 scf sf
5400 1620 m
gs 1 -1 sc ($\\equiv$) dup sw pop 2 div neg 0 rm  col0 sh gr
/Times-Roman ff 190.50 scf sf
5400 2520 m
gs 1 -1 sc ($\\equiv$) dup sw pop 2 div neg 0 rm  col0 sh gr
/Times-Roman ff 190.50 scf sf
5715 1620 m
gs 1 -1 sc ($B[u_I]$) col0 sh gr
/Times-Roman ff 190.50 scf sf
5715 2520 m
gs 1 -1 sc ($Q[v_I]$) col0 sh gr
/Times-Roman ff 190.50 scf sf
1575 2070 m
gs 1 -1 sc ($I$) dup sw pop neg 0 rm  col0 sh gr
/Times-Roman ff 190.50 scf sf
2205 1620 m
gs 1 -1 sc ($A_I$) col0 sh gr
/Times-Roman ff 190.50 scf sf
2205 2520 m
gs 1 -1 sc ($P_I$) col0 sh gr
/Times-Roman ff 158.75 scf sf
1935 2160 m
gs 1 -1 sc ($G$) col0 sh gr
/Times-Roman ff 190.50 scf sf
1980 3060 m
gs 1 -1 sc (\(a\)) dup sw pop 2 div neg 0 rm  col0 sh gr
/Times-Roman ff 190.50 scf sf
4410 3060 m
gs 1 -1 sc (\(b\)) dup sw pop 2 div neg 0 rm  col0 sh gr
/Times-Roman ff 158.75 scf sf
6030 2025 m
gs 1 -1 sc (Provided) col15 sh gr
/Times-Roman ff 158.75 scf sf
6030 2205 m
gs 1 -1 sc ($R\(u_I,v_I\)$) col15 sh gr
% here ends figure;
pagefooter
showpage
%%Trailer
%EOF
