#FIG 3.2  Produced by xfig version 3.2.5c
Landscape
Center
Metric
A4      
60.00
Single
-2
1200 2
5 1 0 2 15 7 50 -1 -1 0.000 0 0 1 0 3581.158 4144.940 2857 3222 3602 2972 4342 3252
	2 1 1.00 60.00 120.00
5 1 0 2 15 7 50 -1 -1 0.000 0 1 0 1 3561.158 2589.060 2837 3512 3582 3762 4322 3482
	0 0 1.00 60.00 120.00
6 3000 3912 4110 4272
4 1 0 50 -1 0 12 0.0000 4 135 1110 3555 4272 VMRESUME\001
4 1 0 50 -1 0 12 0.0000 4 135 1110 3555 4047 VMLAUNCH\001
-6
1 3 0 2 15 7 50 -1 -1 0.000 1 0.0000 2700 3375 190 190 2700 3375 2890 3375
1 3 0 2 15 7 50 -1 -1 0.000 1 0.0000 4500 3375 190 190 4500 3375 4690 3375
2 1 0 2 15 7 50 -1 -1 0.000 0 0 -1 1 0 2
	2 1 1.00 60.00 120.00
	 2064 3375 2472 3375
4 1 0 50 -1 0 12 0.0000 4 135 675 3540 2830 VM exit\001
4 0 0 50 -1 0 12 0.0000 4 135 585 4530 3840 Handle\001
4 0 0 50 -1 0 12 0.0000 4 135 675 4530 4055 VM exit\001
4 2 0 50 -1 0 12 0.0000 4 135 285 2325 3210 Init\001
4 2 0 50 -1 0 12 0.0000 4 180 615 2660 3840 Subject\001
4 2 0 50 -1 0 12 0.0000 4 135 405 2660 4065 Exec\001
