%!PS-Adobe-3.0 EPSF-3.0
%%Title: muen-system-v2.fig
%%Creator: fig2dev Version 3.2 Patchlevel 5e
%%CreationDate: Tue Jul 31 23:24:07 2018
%%BoundingBox: 0 0 251 92
%Magnification: 0.4500
%%EndComments
%%BeginProlog
/$F2psDict 200 dict def
$F2psDict begin
$F2psDict /mtrx matrix put
/col-1 {0 setgray} bind def
/col0 {0.000 0.000 0.000 srgb} bind def
/col1 {0.000 0.000 1.000 srgb} bind def
/col2 {0.000 1.000 0.000 srgb} bind def
/col3 {0.000 1.000 1.000 srgb} bind def
/col4 {1.000 0.000 0.000 srgb} bind def
/col5 {1.000 0.000 1.000 srgb} bind def
/col6 {1.000 1.000 0.000 srgb} bind def
/col7 {1.000 1.000 1.000 srgb} bind def
/col8 {0.000 0.000 0.560 srgb} bind def
/col9 {0.000 0.000 0.690 srgb} bind def
/col10 {0.000 0.000 0.820 srgb} bind def
/col11 {0.530 0.810 1.000 srgb} bind def
/col12 {0.000 0.560 0.000 srgb} bind def
/col13 {0.000 0.690 0.000 srgb} bind def
/col14 {0.000 0.820 0.000 srgb} bind def
/col15 {0.000 0.560 0.560 srgb} bind def
/col16 {0.000 0.690 0.690 srgb} bind def
/col17 {0.000 0.820 0.820 srgb} bind def
/col18 {0.560 0.000 0.000 srgb} bind def
/col19 {0.690 0.000 0.000 srgb} bind def
/col20 {0.820 0.000 0.000 srgb} bind def
/col21 {0.560 0.000 0.560 srgb} bind def
/col22 {0.690 0.000 0.690 srgb} bind def
/col23 {0.820 0.000 0.820 srgb} bind def
/col24 {0.500 0.190 0.000 srgb} bind def
/col25 {0.630 0.250 0.000 srgb} bind def
/col26 {0.750 0.380 0.000 srgb} bind def
/col27 {1.000 0.500 0.500 srgb} bind def
/col28 {1.000 0.630 0.630 srgb} bind def
/col29 {1.000 0.750 0.750 srgb} bind def
/col30 {1.000 0.880 0.880 srgb} bind def
/col31 {1.000 0.840 0.000 srgb} bind def

end

/cp {closepath} bind def
/ef {eofill} bind def
/gr {grestore} bind def
/gs {gsave} bind def
/sa {save} bind def
/rs {restore} bind def
/l {lineto} bind def
/m {moveto} bind def
/rm {rmoveto} bind def
/n {newpath} bind def
/s {stroke} bind def
/sh {show} bind def
/slc {setlinecap} bind def
/slj {setlinejoin} bind def
/slw {setlinewidth} bind def
/srgb {setrgbcolor} bind def
/rot {rotate} bind def
/sc {scale} bind def
/sd {setdash} bind def
/ff {findfont} bind def
/sf {setfont} bind def
/scf {scalefont} bind def
/sw {stringwidth} bind def
/tr {translate} bind def
/tnt {dup dup currentrgbcolor
  4 -2 roll dup 1 exch sub 3 -1 roll mul add
  4 -2 roll dup 1 exch sub 3 -1 roll mul add
  4 -2 roll dup 1 exch sub 3 -1 roll mul add srgb}
  bind def
/shd {dup dup currentrgbcolor 4 -2 roll mul 4 -2 roll mul
  4 -2 roll mul srgb} bind def
/$F2psBegin {$F2psDict begin /$F2psEnteredState save def} def
/$F2psEnd {$F2psEnteredState restore end} def

/pageheader {
save
newpath 0 92 moveto 0 0 lineto 251 0 lineto 251 92 lineto closepath clip newpath
-101.9 137.2 translate
1 -1 scale
$F2psBegin
10 setmiterlimit
0 slj 0 slc
 0.02835 0.02835 sc
} bind def
/pagefooter {
$F2psEnd
restore
} bind def
%%EndProlog
pageheader
%
% Fig objects follow
%
% 
% here starts figure with depth 51
% Polyline
0 slj
0 slc
7.500 slw
n 9450 3600 m 9900 3600 l 9900 4500 l 9450 4500 l
 cp gs col29 0.95 shd ef gr gs col0 s gr 
% Polyline
n 9450 2250 m 9900 2250 l 9900 3150 l 9450 3150 l
 cp gs col29 0.95 shd ef gr gs col0 s gr 
% Polyline
n 10350 1800 m 11250 1800 l 11250 1980 l 10350 1980 l
 cp gs col29 0.95 shd ef gr gs col7 s gr 
% Polyline
n 10350 2700 m 11250 2700 l 11250 2880 l 10350 2880 l
 cp gs col29 0.95 shd ef gr gs col7 s gr 
% Polyline
n 10350 2970 m 11250 2970 l 11250 3150 l 10350 3150 l
 cp gs col29 0.95 shd ef gr gs col7 s gr 
% Polyline
n 10350 3420 m 11250 3420 l 11250 3600 l 10350 3600 l
 cp gs col29 0.95 shd ef gr gs col7 s gr 
% Polyline
n 10350 2160 m 11250 2160 l 11250 2430 l 10350 2430 l
 cp gs col29 0.95 shd ef gr gs col7 s gr 
% Polyline
n 5400 2970 m 9000 2970 l 9000 3572 l 5400 3572 l
 cp gs col29 0.95 shd ef gr gs col0 s gr 
% Polyline
n 9450 4275 m
 9890 4275 l gs col16 s gr 
% Polyline
n 9450 4050 m
 9890 4050 l gs col16 s gr 
% Polyline
n 9450 3825 m
 9890 3825 l gs col16 s gr 
% Polyline
n 9450 2925 m
 9890 2925 l gs col16 s gr 
% Polyline
n 9450 2700 m
 9890 2700 l gs col16 s gr 
% Polyline
n 9450 2475 m
 9890 2475 l gs col16 s gr 
% Polyline
15.000 slw
n 6300 4050 m
 6300 4500 l gs col16 s gr 
% Polyline
n 7200 4050 m
 7200 4500 l gs col16 s gr 
% Polyline
n 8100 4050 m
 8100 4500 l gs col16 s gr 
% Polyline
7.500 slw
n 5400 4050 m 9000 4050 l 9000 4500 l 5400 4500 l
 cp gs col0 s gr 
% Polyline
15.000 slw
n 6302 2970 m
 6302 3522 l gs col16 s gr 
% Polyline
n 8112 3015 m
 8112 3522 l gs col16 s gr 
% Polyline
30.000 slw
n 9000 4230 m
 9450 4230 l gs col15 s gr 
% Polyline
n 9900 4050 m 10080 4050 l 10080 3150 l
 10350 3150 l gs col15 s gr 
% Polyline
7.500 slw
n 11250 2250 m
 11610 2070 l gs col15 s gr 
% Polyline
30.000 slw
n 9000 4230 m
 9450 4230 l gs col15 s gr 
% Polyline
n 9000 4230 m
 9450 4230 l gs col15 s gr 
% Polyline
7.500 slw
n 10350 1620 m 11250 1620 l 11250 4500 l 10350 4500 l
 cp gs col0 s gr 
% Polyline
n 5400 3667 m 9000 3667 l 9000 3952 l 5400 3952 l
 cp gs col0 s gr 
% Polyline
n 3608 3404 m 4508 3404 l 4508 4304 l 3608 4304 l
 cp gs col0 s gr 
% Polyline
15.000 slw
gs  clippath
4979 3884 m 5131 3884 l 5131 3824 l 4979 3824 l 4979 3824 l 5099 3854 l 4979 3884 l cp
eoclip
n 4508 3854 m
 5116 3854 l gs col15 s gr gr

% arrowhead
7.500 slw
n 4979 3884 m 5099 3854 l 4979 3824 l  col15 s
% Polyline
15.000 slw
gs  clippath
4028 3267 m 4028 3419 l 4088 3419 l 4088 3267 l 4088 3267 l 4058 3387 l 4028 3267 l cp
eoclip
n 4058 3085 m
 4058 3404 l gs col15 s gr gr

% arrowhead
7.500 slw
n 4028 3267 m 4058 3387 l 4088 3267 l  col15 s
% Polyline
n 3799 1991 m 3694 1991 3694 2966 105 arcto 4 {pop} repeat
  3694 3071 4309 3071 105 arcto 4 {pop} repeat
  4414 3071 4414 2096 105 arcto 4 {pop} repeat
  4414 1991 3799 1991 105 arcto 4 {pop} repeat
 cp gs col16 s gr 
% Polyline
15.000 slw
n 7202 3015 m
 7202 3522 l gs col16 s gr 
% Polyline
7.500 slw
n 5445 3285 m
 6255 3285 l gs col16 s gr 
% Polyline
n 6345 3285 m
 7155 3285 l gs col16 s gr 
% Polyline
n 7245 3285 m
 8055 3285 l gs col16 s gr 
% Polyline
n 8145 3285 m
 8955 3285 l gs col16 s gr 
% Polyline
n 5802 3672 m
 5802 3922 l gs col16 s gr 
% Polyline
15.000 slw
n 7200 3672 m
 7200 3922 l gs col16 s gr 
% Polyline
7.500 slw
n 8550 3672 m
 8550 3922 l gs col16 s gr 
% Polyline
15.000 slw
n 8100 3672 m
 8100 3922 l gs col16 s gr 
% Polyline
n 6300 3672 m
 6300 3922 l gs col16 s gr 
% Polyline
7.500 slw
gs  clippath
9313 3045 m 9465 3044 l 9464 2984 l 9312 2985 l 9312 2985 l 9433 3015 l 9313 3045 l cp
eoclip
n 8422 3668 m 8418 3633 l 9230 3633 l 9230 3016 l
 9450 3015 l gs col16 s gr gr

% arrowhead
n 9313 3045 m 9433 3015 l 9312 2985 l  col16 s
% Polyline
gs  clippath
9313 3990 m 9465 3990 l 9465 3930 l 9313 3930 l 9313 3930 l 9433 3960 l 9313 3990 l cp
eoclip
n 9000 3870 m 9225 3870 l 9225 3960 l
 9450 3960 l gs col16 s gr gr

% arrowhead
n 9313 3990 m 9433 3960 l 9313 3930 l  col16 s
/Times-Roman ff 190.50 scf sf
5835 4365 m
gs 1 -1 sc (CPU0) dup sw pop 2 div neg 0 rm  col15 sh gr
/Times-Roman ff 190.50 scf sf
6750 4365 m
gs 1 -1 sc (CPU1) dup sw pop 2 div neg 0 rm  col15 sh gr
/Times-Roman ff 190.50 scf sf
7665 4365 m
gs 1 -1 sc (CPU2) dup sw pop 2 div neg 0 rm  col15 sh gr
/Times-Roman ff 190.50 scf sf
8550 4365 m
gs 1 -1 sc (CPU3) dup sw pop 2 div neg 0 rm  col15 sh gr
/Times-Roman ff 190.50 scf sf
10800 4770 m
gs 1 -1 sc (Memory) dup sw pop 2 div neg 0 rm  col15 sh gr
/Times-Roman ff 190.50 scf sf
9690 4770 m
gs 1 -1 sc (PT) dup sw pop 2 div neg 0 rm  col15 sh gr
/Times-Roman ff 158.75 scf sf
11700 2250 m
gs 1 -1 sc (Memory) col15 sh gr
/Times-Roman ff 158.75 scf sf
11700 2070 m
gs 1 -1 sc (Initialized) col15 sh gr
/Times-Roman ff 158.75 scf sf
4058 2414 m
gs 1 -1 sc (Policy) dup sw pop 2 div neg 0 rm  col15 sh gr
/Times-Roman ff 158.75 scf sf
4058 4058 m
gs 1 -1 sc (Generator) dup sw pop 2 div neg 0 rm  col15 sh gr
/Times-Roman ff 158.75 scf sf
4058 3894 m
gs 1 -1 sc (Kernel) dup sw pop 2 div neg 0 rm  col15 sh gr
/Times-Roman ff 158.75 scf sf
4058 3714 m
gs 1 -1 sc (Muen) dup sw pop 2 div neg 0 rm  col15 sh gr
/Times-Roman ff 190.50 scf sf
5835 2835 m
gs 1 -1 sc (Ker0) dup sw pop 2 div neg 0 rm  col15 sh gr
/Times-Roman ff 190.50 scf sf
6735 2835 m
gs 1 -1 sc (Ker1) dup sw pop 2 div neg 0 rm  col15 sh gr
/Times-Roman ff 190.50 scf sf
7655 2835 m
gs 1 -1 sc (Ker2) dup sw pop 2 div neg 0 rm  col15 sh gr
/Times-Roman ff 190.50 scf sf
8545 2835 m
gs 1 -1 sc (Ker3) dup sw pop 2 div neg 0 rm  col15 sh gr
/Times-Roman ff 190.50 scf sf
5835 3485 m
gs 1 -1 sc (Handler) dup sw pop 2 div neg 0 rm  col15 sh gr
/Times-Roman ff 190.50 scf sf
5835 3195 m
gs 1 -1 sc (Init) dup sw pop 2 div neg 0 rm  col15 sh gr
/Times-Roman ff 190.50 scf sf
7650 3195 m
gs 1 -1 sc (Init) dup sw pop 2 div neg 0 rm  col15 sh gr
/Times-Roman ff 190.50 scf sf
6750 3195 m
gs 1 -1 sc (Init) dup sw pop 2 div neg 0 rm  col15 sh gr
/Times-Roman ff 190.50 scf sf
6750 3485 m
gs 1 -1 sc (Handler) dup sw pop 2 div neg 0 rm  col15 sh gr
/Times-Roman ff 190.50 scf sf
7650 3485 m
gs 1 -1 sc (Handler) dup sw pop 2 div neg 0 rm  col15 sh gr
/Times-Roman ff 190.50 scf sf
8550 3195 m
gs 1 -1 sc (Init) dup sw pop 2 div neg 0 rm  col15 sh gr
/Times-Roman ff 190.50 scf sf
8550 3485 m
gs 1 -1 sc (Handler) dup sw pop 2 div neg 0 rm  col15 sh gr
/Times-Roman ff 158.75 scf sf
6072 3847 m
gs 1 -1 sc (CR3/EPTP) dup sw pop 2 div neg 0 rm  col15 sh gr
/Times-Roman ff 127.00 scf sf
5602 3847 m
gs 1 -1 sc (VMPTR) dup sw pop 2 div neg 0 rm  col15 sh gr
/Times-Roman ff 127.00 scf sf
8325 3847 m
gs 1 -1 sc (VMPTR) dup sw pop 2 div neg 0 rm  col15 sh gr
/Times-Roman ff 190.50 scf sf
9690 3330 m
gs 1 -1 sc (VMCS) dup sw pop 2 div neg 0 rm  col15 sh gr
/Times-Roman ff 111.13 scf sf
8766 3794 m
gs 1 -1 sc (CR3/) dup sw pop 2 div neg 0 rm  col15 sh gr
/Times-Roman ff 111.13 scf sf
8766 3914 m
gs 1 -1 sc (EPTP) dup sw pop 2 div neg 0 rm  col15 sh gr
% here ends figure;
pagefooter
showpage
%%Trailer
%EOF
