%!PS-Adobe-3.0 EPSF-3.0
%%Title: muen-proof.fig
%%Creator: fig2dev Version 3.2 Patchlevel 5e
%%CreationDate: Fri Jul 27 22:18:27 2018
%%BoundingBox: 0 0 207 51
%Magnification: 0.7000
%%EndComments
%%BeginProlog
/$F2psDict 200 dict def
$F2psDict begin
$F2psDict /mtrx matrix put
/col-1 {0 setgray} bind def
/col0 {0.000 0.000 0.000 srgb} bind def
/col1 {0.000 0.000 1.000 srgb} bind def
/col2 {0.000 1.000 0.000 srgb} bind def
/col3 {0.000 1.000 1.000 srgb} bind def
/col4 {1.000 0.000 0.000 srgb} bind def
/col5 {1.000 0.000 1.000 srgb} bind def
/col6 {1.000 1.000 0.000 srgb} bind def
/col7 {1.000 1.000 1.000 srgb} bind def
/col8 {0.000 0.000 0.560 srgb} bind def
/col9 {0.000 0.000 0.690 srgb} bind def
/col10 {0.000 0.000 0.820 srgb} bind def
/col11 {0.530 0.810 1.000 srgb} bind def
/col12 {0.000 0.560 0.000 srgb} bind def
/col13 {0.000 0.690 0.000 srgb} bind def
/col14 {0.000 0.820 0.000 srgb} bind def
/col15 {0.000 0.560 0.560 srgb} bind def
/col16 {0.000 0.690 0.690 srgb} bind def
/col17 {0.000 0.820 0.820 srgb} bind def
/col18 {0.560 0.000 0.000 srgb} bind def
/col19 {0.690 0.000 0.000 srgb} bind def
/col20 {0.820 0.000 0.000 srgb} bind def
/col21 {0.560 0.000 0.560 srgb} bind def
/col22 {0.690 0.000 0.690 srgb} bind def
/col23 {0.820 0.000 0.820 srgb} bind def
/col24 {0.500 0.190 0.000 srgb} bind def
/col25 {0.630 0.250 0.000 srgb} bind def
/col26 {0.750 0.380 0.000 srgb} bind def
/col27 {1.000 0.500 0.500 srgb} bind def
/col28 {1.000 0.630 0.630 srgb} bind def
/col29 {1.000 0.750 0.750 srgb} bind def
/col30 {1.000 0.880 0.880 srgb} bind def
/col31 {1.000 0.840 0.000 srgb} bind def

end

/cp {closepath} bind def
/ef {eofill} bind def
/gr {grestore} bind def
/gs {gsave} bind def
/sa {save} bind def
/rs {restore} bind def
/l {lineto} bind def
/m {moveto} bind def
/rm {rmoveto} bind def
/n {newpath} bind def
/s {stroke} bind def
/sh {show} bind def
/slc {setlinecap} bind def
/slj {setlinejoin} bind def
/slw {setlinewidth} bind def
/srgb {setrgbcolor} bind def
/rot {rotate} bind def
/sc {scale} bind def
/sd {setdash} bind def
/ff {findfont} bind def
/sf {setfont} bind def
/scf {scalefont} bind def
/sw {stringwidth} bind def
/tr {translate} bind def
/tnt {dup dup currentrgbcolor
  4 -2 roll dup 1 exch sub 3 -1 roll mul add
  4 -2 roll dup 1 exch sub 3 -1 roll mul add
  4 -2 roll dup 1 exch sub 3 -1 roll mul add srgb}
  bind def
/shd {dup dup currentrgbcolor 4 -2 roll mul 4 -2 roll mul
  4 -2 roll mul srgb} bind def
/$F2psBegin {$F2psDict begin /$F2psEnteredState save def} def
/$F2psEnd {$F2psEnteredState restore end} def

/pageheader {
save
newpath 0 51 moveto 0 0 lineto 207 0 lineto 207 51 lineto closepath clip newpath
-200.1 96.5 translate
1 -1 scale
$F2psBegin
10 setmiterlimit
0 slj 0 slc
 0.04409 0.04409 sc
} bind def
/pagefooter {
$F2psEnd
restore
} bind def
%%EndProlog
pageheader
%
% Fig objects follow
%
% 
% here starts figure with depth 50
% Polyline
0 slj
0 slc
15.000 slw
 [60] 0 sd
gs  clippath
4620 1397 m 4620 1245 l 4560 1245 l 4560 1397 l 4560 1397 l 4590 1277 l 4620 1397 l cp
eoclip
n 4590 1890 m
 4590 1260 l gs col15 s gr gr
 [] 0 sd
% arrowhead
7.500 slw
n 4620 1397 m 4590 1277 l 4560 1397 l  col15 s
% Polyline
15.000 slw
gs  clippath
7010 1358 m 7138 1277 l 7106 1226 l 6978 1308 l 6978 1308 l 7096 1269 l 7010 1358 l cp
eoclip
n 6615 1575 m
 7110 1260 l gs col15 s gr gr

% arrowhead
7.500 slw
n 7010 1358 m 7096 1269 l 6978 1308 l  col15 s
% Polyline
15.000 slw
gs  clippath
6978 1899 m 7106 1981 l 7138 1930 l 7010 1849 l 7010 1849 l 7096 1939 l 6978 1899 l cp
eoclip
n 6615 1633 m
 7110 1948 l gs col15 s gr gr

% arrowhead
7.500 slw
n 6978 1899 m 7096 1939 l 7010 1849 l  col15 s
% Polyline
15.000 slw
 [60] 0 sd
gs  clippath
8355 1397 m 8355 1245 l 8295 1245 l 8295 1397 l 8295 1397 l 8325 1277 l 8355 1397 l cp
eoclip
n 8325 1890 m
 8325 1260 l gs col15 s gr gr
 [] 0 sd
% arrowhead
7.500 slw
n 8355 1397 m 8325 1277 l 8295 1397 l  col15 s
/Times-Roman ff 190.50 scf sf
4590 2115 m
gs 1 -1 sc ($P[N]$) dup sw pop 2 div neg 0 rm  col0 sh gr
/Times-Roman ff 190.50 scf sf
4590 1215 m
gs 1 -1 sc ($B[M]$) dup sw pop 2 div neg 0 rm  col0 sh gr
/Times-Roman ff 158.75 scf sf
4635 1890 m
gs 1 -1 sc ($R$) col15 sh gr
/Times-Roman ff 190.50 scf sf
6525 1665 m
gs 1 -1 sc ($\\muengen\(I\)$) dup sw pop neg 0 rm  col0 sh gr
/Times-Roman ff 190.50 scf sf
7155 1215 m
gs 1 -1 sc ($A_I$) col0 sh gr
/Times-Roman ff 190.50 scf sf
7155 2115 m
gs 1 -1 sc ($S_I$) col0 sh gr
/Times-Roman ff 190.50 scf sf
7695 1215 m
gs 1 -1 sc ($\\equiv$) dup sw pop 2 div neg 0 rm  col0 sh gr
/Times-Roman ff 190.50 scf sf
7695 2115 m
gs 1 -1 sc ($\\equiv$) dup sw pop 2 div neg 0 rm  col0 sh gr
/Times-Roman ff 190.50 scf sf
8010 1215 m
gs 1 -1 sc ($B[m_I]$) col0 sh gr
/Times-Roman ff 158.75 scf sf
8550 1800 m
gs 1 -1 sc ($R\(n_I,m_I\)$) col15 sh gr
/Times-Roman ff 158.75 scf sf
8550 1620 m
gs 1 -1 sc (Provided) col15 sh gr
/Times-Roman ff 190.50 scf sf
8010 2115 m
gs 1 -1 sc ($P[n_I]$) col0 sh gr
% here ends figure;
pagefooter
showpage
%%Trailer
%EOF
