#FIG 3.2  Produced by xfig version 3.2.5c
Landscape
Center
Metric
A4      
65.00
Single
-2
1200 2
6 9450 3600 9900 4500
2 2 0 1 0 29 51 -1 19 0.000 0 0 -1 0 0 5
	 9450 3600 9900 3600 9900 4500 9450 4500 9450 3600
2 1 0 1 16 7 50 -1 -1 0.000 0 0 -1 0 0 2
	 9450 4275 9890 4275
2 1 0 1 16 7 50 -1 -1 0.000 0 0 -1 0 0 2
	 9450 4050 9890 4050
2 1 0 1 16 7 50 -1 -1 0.000 0 0 -1 0 0 2
	 9450 3825 9890 3825
-6
2 1 0 2 15 7 50 -1 -1 0.000 0 0 -1 0 0 2
	 6300 4050 6300 4500
2 1 0 2 15 7 50 -1 -1 0.000 0 0 -1 0 0 2
	 7200 4050 7200 4500
2 1 0 2 15 7 50 -1 -1 0.000 0 0 -1 0 0 2
	 8100 4050 8100 4500
2 2 0 1 0 7 50 -1 -1 0.000 0 0 -1 0 0 5
	 5400 4050 9000 4050 9000 4500 5400 4500 5400 4050
2 1 0 3 15 7 50 -1 -1 0.000 0 0 -1 0 0 2
	 9000 4230 9450 4230
2 1 0 3 15 7 50 -1 -1 0.000 0 0 -1 0 0 4
	 9900 3951 10080 3951 10080 3150 10350 3150
2 1 0 3 15 7 50 -1 -1 0.000 0 0 -1 0 0 2
	 9000 4230 9450 4230
2 1 0 3 15 7 50 -1 -1 0.000 0 0 -1 0 0 2
	 9000 4230 9450 4230
2 1 0 1 15 7 50 -1 -1 0.000 0 0 -1 1 0 4
	0 0 1.00 60.00 120.00
	 9000 3724 9225 3724 9225 3960 9450 3960
2 1 0 1 15 7 50 -1 -1 0.000 0 0 -1 1 0 5
	0 0 1.00 60.00 120.00
	 8419 3498 8415 3375 9240 3375 9240 3002 9460 3001
2 1 0 1 15 7 50 -1 -1 0.000 0 0 -1 0 0 2
	 9450 2925 9890 2925
2 1 0 1 15 7 50 -1 -1 0.000 0 0 -1 0 0 2
	 9450 2700 9890 2700
2 1 0 1 15 7 50 -1 -1 0.000 0 0 -1 0 0 2
	 9450 2475 9890 2475
2 2 0 1 0 29 51 -1 -1 0.000 0 0 -1 0 0 5
	 9450 2250 9900 2250 9900 3150 9450 3150 9450 2250
2 2 0 1 0 7 50 -1 -1 0.000 0 0 -1 0 0 5
	 10350 1905 11115 1905 11115 4500 10350 4500 10350 1905
2 2 0 1 7 29 51 -1 19 0.000 0 0 -1 0 0 5
	 10350 2370 11115 2370 11115 4365 10350 4365 10350 2370
2 1 0 2 15 7 50 -1 -1 0.000 0 0 -1 0 0 2
	 8100 3499 8100 3922
2 1 0 2 16 7 50 -1 -1 0.000 0 0 -1 0 0 2
	 6300 3509 6300 3922
2 1 0 1 15 7 50 -1 -1 0.000 0 0 -1 0 0 2
	 8592 3499 8592 3922
2 1 0 1 15 7 50 -1 -1 0.000 0 0 -1 0 0 2
	 6786 3509 6786 3922
2 1 0 1 15 7 50 -1 -1 0.000 0 0 -1 0 0 2
	 5882 3509 5882 3922
2 1 0 1 15 7 50 -1 -1 0.000 0 0 -1 0 0 2
	 7679 3509 7679 3922
2 1 0 2 15 7 50 -1 -1 0.000 0 0 -1 0 0 2
	 7200 3529 7200 3922
2 1 0 1 15 7 50 -1 -1 0.000 0 0 -1 0 0 2
	 6782 3732 6309 3732
2 1 0 1 15 7 50 -1 -1 0.000 0 0 -1 0 0 2
	 7682 3732 7209 3732
2 1 0 1 15 7 50 -1 -1 0.000 0 0 -1 0 0 2
	 8572 3732 8099 3732
2 1 0 1 15 7 50 -1 -1 0.000 0 0 -1 1 0 5
	0 0 1.00 60.00 120.00
	 9585 3150 9585 3257 9349 3251 9351 3564 8998 3564
2 1 0 2 15 7 50 -1 -1 0.000 0 0 -1 1 0 2
	0 0 1.00 60.00 120.00
	 4822 3375 5322 3375
2 1 0 2 15 7 50 -1 -1 0.000 0 0 -1 1 0 2
	0 0 1.00 60.00 120.00
	 4392 2597 4392 3033
2 4 0 1 0 7 50 -1 -1 0.000 0 0 7 0 0 5
	 4714 2592 4084 2592 4084 2142 4714 2142 4714 2592
2 2 0 1 0 7 50 -1 -1 0.000 0 0 -1 0 0 5
	 3960 3060 4815 3060 4815 3678 3960 3678 3960 3060
2 1 0 1 15 7 50 -1 -1 0.000 0 0 -1 0 0 2
	 5882 3742 5409 3742
2 2 0 1 0 7 50 -1 -1 0.000 0 0 -1 0 0 5
	 5400 3499 9000 3499 9000 3952 5400 3952 5400 3499
2 1 0 2 15 7 50 -1 -1 0.000 0 0 -1 0 0 2
	 6302 2638 6302 3190
2 1 0 2 15 7 50 -1 -1 0.000 0 0 -1 0 0 2
	 8112 2683 8112 3190
2 2 0 1 0 29 51 -1 19 0.000 0 0 -1 0 0 5
	 5400 2638 9000 2638 9000 3240 5400 3240 5400 2638
2 1 0 2 15 7 50 -1 -1 0.000 0 0 -1 0 0 2
	 7202 2683 7202 3190
2 1 0 1 15 7 50 -1 -1 0.000 0 0 -1 0 0 2
	 5445 2953 6255 2953
2 1 0 1 15 7 50 -1 -1 0.000 0 0 -1 0 0 2
	 6345 2953 7155 2953
2 1 0 1 15 7 50 -1 -1 0.000 0 0 -1 0 0 2
	 7245 2953 8055 2953
2 1 0 1 15 7 50 -1 -1 0.000 0 0 -1 0 0 2
	 8145 2953 8955 2953
2 4 1 2 15 7 50 -1 -1 4.000 0 0 7 0 0 5
	 11190 4860 5332 4860 5332 1802 11190 1802 11190 4860
4 1 0 50 -1 -1 12 0.0000 4 135 480 6750 4365 CPU1\001
4 1 0 50 -1 -1 12 0.0000 4 135 480 7665 4365 CPU2\001
4 1 0 50 -1 -1 12 0.0000 4 135 480 8550 4365 CPU3\001
4 1 0 50 -1 -1 12 0.0000 4 135 390 6735 2565 Ker1\001
4 1 0 50 -1 -1 12 0.0000 4 135 390 7655 2565 Ker2\001
4 1 0 50 -1 -1 12 0.0000 4 135 390 8550 2565 Ker3\001
4 1 0 50 -1 -1 12 0.0000 4 135 225 9690 4725 PT\001
4 1 0 50 -1 -1 12 0.0000 4 180 690 10755 4725 Memory\001
4 1 0 50 -1 -1 8 0.0000 4 90 345 8355 3877 Timer\001
4 1 0 50 -1 -1 8 0.0000 4 90 480 8355 3657 VMPTR\001
4 1 0 50 -1 -1 8 0.0000 4 90 480 5642 3657 VMPTR\001
4 1 0 50 -1 -1 8 0.0000 4 90 345 5645 3877 Timer\001
4 1 0 50 -1 -1 8 0.0000 4 90 480 7449 3657 VMPTR\001
4 1 0 50 -1 -1 8 0.0000 4 90 345 6555 3877 Timer\001
4 1 0 50 -1 -1 8 0.0000 4 90 345 7445 3877 Timer\001
4 1 0 50 -1 -1 8 0.0000 4 90 330 8786 3874 EPTP\001
4 1 0 50 -1 -1 8 0.0000 4 90 255 8776 3674 CR3\001
4 1 0 50 -1 -1 8 0.0000 4 90 255 7875 3674 CR3\001
4 1 0 50 -1 -1 8 0.0000 4 90 255 6975 3674 CR3\001
4 1 0 50 -1 -1 8 0.0000 4 90 255 6075 3674 CR3\001
4 1 0 50 -1 -1 8 0.0000 4 90 330 7875 3874 EPTP\001
4 1 0 50 -1 -1 8 0.0000 4 90 330 6975 3874 EPTP\001
4 1 0 50 -1 -1 8 0.0000 4 90 330 6075 3874 EPTP\001
4 1 0 50 -1 -1 12 0.0000 4 135 555 9675 2160 VMCS\001
4 1 0 50 -1 -1 10 0.0000 4 135 435 4407 2422 Policy\001
4 1 0 50 -1 -1 10 0.0000 4 135 495 4372 3435 System\001
4 1 0 50 -1 -1 10 0.0000 4 105 285 4372 3599 Gen\001
4 1 0 50 -1 -1 10 0.0000 4 105 405 4372 3255 Muen\001
4 1 0 50 -1 -1 12 0.0000 4 135 480 5835 4365 CPU0\001
4 1 0 50 -1 -1 12 0.0000 4 135 390 5835 2565 Ker0\001
4 1 0 50 -1 -1 8 0.0000 4 90 480 6549 3657 VMPTR\001
4 1 15 50 -1 -1 12 0.0000 4 135 645 5835 3153 Handler\001
4 1 15 50 -1 -1 12 0.0000 4 135 285 7650 2863 Init\001
4 1 15 50 -1 -1 12 0.0000 4 135 285 6750 2863 Init\001
4 1 15 50 -1 -1 12 0.0000 4 135 645 6750 3153 Handler\001
4 1 15 50 -1 -1 12 0.0000 4 135 645 7650 3153 Handler\001
4 1 15 50 -1 -1 12 0.0000 4 135 285 8550 2863 Init\001
4 1 15 50 -1 -1 12 0.0000 4 135 645 8550 3153 Handler\001
4 1 15 50 -1 -1 12 0.0000 4 135 285 5835 2863 Init\001
