#FIG 3.2  Produced by xfig version 3.2.5c
Landscape
Center
Metric
A4      
100.00
Single
-2
1200 2
5 1 0 1 0 7 50 -1 -1 0.000 0 1 1 0 8554.500 3960.000 9900 4770 10125 3960 9900 3150
	2 1 1.00 90.00 120.00
6 7020 2070 10440 5850
5 1 0 1 0 7 50 -1 -1 0.000 0 1 1 0 6214.500 3960.000 7560 4770 7785 3960 7560 3150
	2 1 1.00 90.00 120.00
1 3 0 1 0 7 50 -1 -1 0.000 1 0.0000 7560 2610 540 540 7560 2610 8100 2610
1 3 0 1 0 7 50 -1 -1 0.000 1 0.0000 7560 5310 540 540 7560 5310 8100 5310
1 3 0 1 0 7 50 -1 -1 0.000 1 0.0000 9900 5310 540 540 9900 5310 10440 5310
2 1 0 1 0 7 50 -1 -1 0.000 0 0 -1 1 0 2
	2 1 1.00 60.00 120.00
	 8100 5310 9360 5310
4 1 0 50 -1 0 18 0.0000 6 135 540 8010 4050 $\\rho$\001
-6
6 2295 2070 5715 5850
5 1 0 1 0 7 50 -1 -1 0.000 0 1 1 0 1489.500 3960.000 2835 4770 3060 3960 2835 3150
	2 1 1.00 90.00 120.00
1 3 0 1 0 7 50 -1 -1 0.000 1 0.0000 2835 2610 540 540 2835 2610 3375 2610
1 3 0 1 0 7 50 -1 -1 0.000 1 0.0000 2835 5310 540 540 2835 5310 3375 5310
1 3 0 1 0 7 50 -1 -1 0.000 1 0.0000 5175 5310 540 540 5175 5310 5715 5310
2 1 0 1 0 7 50 -1 -1 0.000 0 0 -1 1 0 2
	2 1 1.00 60.00 120.00
	 3375 5310 4635 5310
4 1 0 50 -1 0 18 0.0000 6 135 540 3285 4050 $\\rho$\001
-6
1 3 0 1 0 7 50 -1 -1 0.000 1 0.0000 9900 2610 540 540 9900 2610 10440 2610
2 1 0 1 0 7 50 -1 -1 0.000 0 0 -1 1 0 2
	2 1 1.00 60.00 120.00
	 8100 2610 9360 2610
2 1 0 1 0 7 50 -1 -1 0.000 0 0 -1 0 0 2
	 5850 3600 6300 3600
2 1 0 1 0 7 50 -1 -1 0.000 0 0 -1 0 0 2
	 5850 3825 6300 3825
2 1 0 1 0 7 50 -1 -1 0.000 0 0 -1 0 0 2
	 6165 3420 6435 3690
2 1 0 1 0 7 50 -1 -1 0.000 0 0 -1 0 0 2
	 6165 3960 6435 3690
4 1 0 50 -1 0 18 0.0000 4 90 360 10800 5400 conc\001
4 1 0 50 -1 0 18 0.0000 4 135 270 10800 2700 abs\001
4 1 0 50 -1 0 18 0.0000 6 135 540 10350 4050 $\\rho$\001
4 1 0 50 -1 0 18 0.0000 4 120 180 8685 2430 op\001
4 1 0 50 -1 0 18 0.0000 4 120 180 8685 5175 op\001
4 1 0 50 -1 0 18 0.0000 4 120 180 3960 5175 op\001
