#FIG 3.2  Produced by xfig version 3.2.5c
Landscape
Center
Metric
A4      
60.00
Single
-2
1200 2
6 4635 2385 5445 2970
4 1 0 50 -1 0 12 0.0000 4 135 450 5040 2520 VMX\001
4 1 0 50 -1 0 12 0.0000 4 135 735 5040 2745 Non-root\001
4 1 0 50 -1 0 12 0.0000 4 135 480 5040 2970 Mode\001
-6
2 2 0 1 0 7 50 -1 -1 0.000 0 0 -1 0 0 5
	 5400 4050 9000 4050 9000 4500 5400 4500 5400 4050
2 1 0 3 15 7 50 -1 -1 0.000 0 0 -1 0 0 2
	 9000 4230 9450 4230
2 1 0 3 15 7 50 -1 -1 0.000 0 0 -1 0 0 4
	 9900 4050 10080 4050 10080 3150 10350 3150
2 2 0 1 7 29 51 -1 19 0.000 0 0 -1 0 0 5
	 10350 1800 11250 1800 11250 1980 10350 1980 10350 1800
2 2 0 1 0 29 51 -1 19 0.000 0 0 -1 0 0 5
	 9450 3600 9900 3600 9900 4500 9450 4500 9450 3600
2 2 0 1 7 29 51 -1 19 0.000 0 0 -1 0 0 5
	 10350 2160 11250 2160 11250 2430 10350 2430 10350 2160
2 1 0 3 15 7 50 -1 -1 0.000 0 0 -1 0 0 2
	 9000 4230 9450 4230
2 1 0 3 15 7 50 -1 -1 0.000 0 0 -1 0 0 2
	 9000 4230 9450 4230
2 2 0 1 0 7 50 -1 -1 0.000 0 0 -1 0 0 5
	 10350 1620 11250 1620 11250 4500 10350 4500 10350 1620
2 4 0 1 16 7 50 -1 -1 0.000 0 0 7 0 0 5
	 7038 2971 6471 2971 6471 2278 7038 2278 7038 2971
2 4 0 1 16 7 50 -1 -1 0.000 0 0 7 0 0 5
	 7924 2971 7357 2971 7357 2278 7924 2278 7924 2971
2 4 0 1 16 7 50 -1 -1 0.000 0 0 7 0 0 5
	 8824 2971 8257 2971 8257 2278 8824 2278 8824 2971
2 2 0 1 7 29 51 -1 19 0.000 0 0 -1 0 0 5
	 10350 2790 11250 2790 11250 2970 10350 2970 10350 2790
2 2 0 1 29 29 51 -1 19 0.000 0 0 -1 0 0 5
	 10350 2970 11250 2970 11250 3150 10350 3150 10350 2970
2 2 0 1 7 29 51 -1 19 0.000 0 0 -1 0 0 5
	 10350 3600 11250 3600 11250 3780 10350 3780 10350 3600
2 2 0 1 29 29 51 -1 19 0.000 0 0 -1 0 0 5
	 10350 3420 11250 3420 11250 3600 10350 3600 10350 3420
2 4 0 1 16 7 50 -1 -1 0.000 0 0 7 0 0 5
	 6132 2971 5565 2971 5565 2278 6132 2278 6132 2971
2 1 1 2 0 7 50 -1 -1 4.000 0 0 -1 0 0 2
	 9000 3129 4500 3129
2 2 0 1 0 29 51 -1 19 0.000 0 0 -1 0 0 5
	 5400 3287 9000 3287 9000 3572 5400 3572 5400 3287
2 2 0 1 0 7 50 -1 -1 0.000 0 0 -1 0 0 5
	 5400 3667 9000 3667 9000 3952 5400 3952 5400 3667
4 1 15 50 -1 -1 12 0.0000 4 180 690 10800 4770 Memory\001
4 1 15 40 -1 -1 12 0.0000 4 180 1650 7200 3485 Hypervisor or VMM\001
4 1 15 50 -1 -1 12 0.0000 4 135 375 7200 4365 CPU\001
4 1 16 50 -1 -1 10 0.0000 4 105 645 6755 2205 Guest OS\001
4 1 16 50 -1 -1 10 0.0000 4 105 645 5849 2205 Guest OS\001
4 1 16 50 -1 -1 10 0.0000 4 105 645 7641 2205 Guest OS\001
4 1 16 50 -1 -1 10 0.0000 4 105 645 8541 2205 Guest OS\001
4 1 15 50 -1 -1 12 0.0000 4 135 345 9690 4770 EPT\001
4 1 16 40 -1 -1 10 0.0000 4 105 645 10845 3645 Guest OS\001
4 1 16 40 -1 -1 10 0.0000 4 105 645 10845 3015 Guest OS\001
4 1 16 40 -1 -1 10 0.0000 4 105 645 10845 2340 Guest OS\001
4 1 16 40 -1 -1 10 0.0000 4 105 645 10845 1935 Guest OS\001
4 1 0 50 -1 0 12 0.0000 4 135 450 5040 3420 VMX\001
4 1 0 50 -1 0 12 0.0000 4 135 480 5040 3870 Mode\001
4 1 0 50 -1 0 12 0.0000 4 135 405 5040 3645 Root\001
4 1 15 50 -1 -1 12 0.0000 4 135 555 7202 3867 V T - x\001
