%!PS-Adobe-3.0 EPSF-3.0
%%Title: xml-cycle-rep.fig
%%Creator: fig2dev Version 3.2 Patchlevel 5e
%%CreationDate: Thu Feb  7 12:32:57 2019
%%BoundingBox: 0 0 242 158
%Magnification: 0.4000
%%EndComments
%%BeginProlog
/$F2psDict 200 dict def
$F2psDict begin
$F2psDict /mtrx matrix put
/col-1 {0 setgray} bind def
/col0 {0.000 0.000 0.000 srgb} bind def
/col1 {0.000 0.000 1.000 srgb} bind def
/col2 {0.000 1.000 0.000 srgb} bind def
/col3 {0.000 1.000 1.000 srgb} bind def
/col4 {1.000 0.000 0.000 srgb} bind def
/col5 {1.000 0.000 1.000 srgb} bind def
/col6 {1.000 1.000 0.000 srgb} bind def
/col7 {1.000 1.000 1.000 srgb} bind def
/col8 {0.000 0.000 0.560 srgb} bind def
/col9 {0.000 0.000 0.690 srgb} bind def
/col10 {0.000 0.000 0.820 srgb} bind def
/col11 {0.530 0.810 1.000 srgb} bind def
/col12 {0.000 0.560 0.000 srgb} bind def
/col13 {0.000 0.690 0.000 srgb} bind def
/col14 {0.000 0.820 0.000 srgb} bind def
/col15 {0.000 0.560 0.560 srgb} bind def
/col16 {0.000 0.690 0.690 srgb} bind def
/col17 {0.000 0.820 0.820 srgb} bind def
/col18 {0.560 0.000 0.000 srgb} bind def
/col19 {0.690 0.000 0.000 srgb} bind def
/col20 {0.820 0.000 0.000 srgb} bind def
/col21 {0.560 0.000 0.560 srgb} bind def
/col22 {0.690 0.000 0.690 srgb} bind def
/col23 {0.820 0.000 0.820 srgb} bind def
/col24 {0.500 0.190 0.000 srgb} bind def
/col25 {0.630 0.250 0.000 srgb} bind def
/col26 {0.750 0.380 0.000 srgb} bind def
/col27 {1.000 0.500 0.500 srgb} bind def
/col28 {1.000 0.630 0.630 srgb} bind def
/col29 {1.000 0.750 0.750 srgb} bind def
/col30 {1.000 0.880 0.880 srgb} bind def
/col31 {1.000 0.840 0.000 srgb} bind def

end

/cp {closepath} bind def
/ef {eofill} bind def
/gr {grestore} bind def
/gs {gsave} bind def
/sa {save} bind def
/rs {restore} bind def
/l {lineto} bind def
/m {moveto} bind def
/rm {rmoveto} bind def
/n {newpath} bind def
/s {stroke} bind def
/sh {show} bind def
/slc {setlinecap} bind def
/slj {setlinejoin} bind def
/slw {setlinewidth} bind def
/srgb {setrgbcolor} bind def
/rot {rotate} bind def
/sc {scale} bind def
/sd {setdash} bind def
/ff {findfont} bind def
/sf {setfont} bind def
/scf {scalefont} bind def
/sw {stringwidth} bind def
/tr {translate} bind def
/tnt {dup dup currentrgbcolor
  4 -2 roll dup 1 exch sub 3 -1 roll mul add
  4 -2 roll dup 1 exch sub 3 -1 roll mul add
  4 -2 roll dup 1 exch sub 3 -1 roll mul add srgb}
  bind def
/shd {dup dup currentrgbcolor 4 -2 roll mul 4 -2 roll mul
  4 -2 roll mul srgb} bind def
 /DrawEllipse {
	/endangle exch def
	/startangle exch def
	/yrad exch def
	/xrad exch def
	/y exch def
	/x exch def
	/savematrix mtrx currentmatrix def
	x y tr xrad yrad sc 0 0 1 startangle endangle arc
	closepath
	savematrix setmatrix
	} def

/$F2psBegin {$F2psDict begin /$F2psEnteredState save def} def
/$F2psEnd {$F2psEnteredState restore end} def

/pageheader {
save
newpath 0 158 moveto 0 0 lineto 242 0 lineto 242 158 lineto closepath clip newpath
-16.8 176.1 translate
1 -1 scale
$F2psBegin
10 setmiterlimit
0 slj 0 slc
 0.02520 0.02520 sc
} bind def
/pagefooter {
$F2psEnd
restore
} bind def
%%EndProlog
pageheader
%
% Fig objects follow
%
% 
% here starts figure with depth 50
% Arc
555.000 slw
0 slc
n 3599.3 4051.7 1913.7 -89.9800 -0.0499 arc
gs col29 s gr

% Arc
n 3600.9 4050.0 2587.0 -90.0195 30.0128 arc
gs col29 s gr

% Ellipse
7.500 slw
gs
3600 4050 tr
-180.000 rot
n 0 0 2250 2250 0 360 DrawEllipse 180.000 rot
gs col0 s gr
gr

% Ellipse
gs
3600 4050 tr
-270.001 rot
n 0 0 2925 2925 0 360 DrawEllipse 270.001 rot
gs col0 s gr
gr

% Ellipse
gs
3600 4050 tr
-180.000 rot
n 0 0 1575 1575 0 360 DrawEllipse 180.000 rot
gs col0 s gr
gr

% Polyline
0 slj
gs  clippath
4490 1050 m 4305 1050 l 4305 1110 l 4490 1110 l 4490 1110 l 4340 1080 l 4490 1050 l cp
eoclip
n 4995 1080 m
 4320 1080 l gs col0 s gr gr

% arrowhead
n 4490 1050 m 4340 1080 l 4490 1110 l 4460 1080 l 4490 1050 l 
 cp gs 0.00 setgray ef gr  col0 s
% Polyline
n 8100 1125 m
 8100 6975 l gs col0 s gr 
% Polyline
n 7785 1125 m
 9990 1125 l gs col0 s gr 
% Polyline
gs  clippath
3630 2780 m 3630 2595 l 3570 2595 l 3570 2780 l 3570 2780 l 3600 2630 l 3630 2780 l cp
eoclip
n 3600 3015 m
 3600 2610 l gs col0 s gr gr

% arrowhead
n 3630 2780 m 3600 2630 l 3570 2780 l 3600 2750 l 3630 2780 l 
 cp gs 0.00 setgray ef gr  col0 s
% Polyline
gs  clippath
4849 3693 m 5024 3635 l 5005 3578 l 4830 3637 l 4830 3637 l 4982 3618 l 4849 3693 l cp
eoclip
n 4582 3752 m
 5001 3612 l gs col0 s gr gr

% arrowhead
n 4849 3693 m 4982 3618 l 4830 3637 l 4868 3656 l 4849 3693 l 
 cp gs 0.00 setgray ef gr  col0 s
% Polyline
 [60] 0 sd
n 7785 3060 m
 9990 3060 l gs col0 s gr  [] 0 sd
% Polyline
n 8550 1125 m
 8550 6975 l gs col0 s gr 
% Polyline
n 8100 3060 m 8550 3060 l 8550 5085 l 8100 5085 l
 cp gs col29 1.00 shd ef gr gs col0 s gr 
% Polyline
n 9675 1125 m
 9675 6975 l gs col0 s gr 
% Polyline
n 9225 1125 m
 9225 6975 l gs col0 s gr 
% Polyline
n 9225 3060 m 9675 3060 l 9675 5715 l 9225 5715 l
 cp gs col29 1.00 shd ef gr gs col0 s gr 
/Times-Roman ff 254.00 scf sf
3645 900 m
gs 1 -1 sc (Maj 0) col0 sh gr
/Times-Roman ff 238.13 scf sf
8325 945 m
gs 1 -1 sc (CPU0) dup sw pop 2 div neg 0 rm  col0 sh gr
/Times-Roman ff 222.25 scf sf
9450 945 m
gs 1 -1 sc (CPU1) dup sw pop 2 div neg 0 rm  col0 sh gr
/Times-Roman ff 222.25 scf sf
7605 3105 m
gs 1 -1 sc (CMSC) dup sw pop neg 0 rm  col0 sh gr
/Times-Roman ff 222.25 scf sf
9855 5783 m
gs 1 -1 sc (TSC1) col0 sh gr
/Times-Roman ff 222.25 scf sf
7830 5153 m
gs 1 -1 sc (TSC0) dup sw pop neg 0 rm  col0 sh gr
/Times-Roman ff 254.00 scf sf
5175 1125 m
gs 1 -1 sc (CurrMajFr) col0 sh gr
/Times-Roman ff 222.25 scf sf
4320 3685 m
gs 1 -1 sc  16.0 rot (CurrMinFr0) dup sw pop 2 div neg 0 rm  col0 sh gr
/Times-Roman ff 222.25 scf sf
3440 3240 m
gs 1 -1 sc  90.0 rot (CurrMinFr1) dup sw pop 2 div neg 0 rm  col0 sh gr
/Times-Roman ff 254.00 scf sf
5535 6660 m
gs 1 -1 sc (Maj 1) col0 sh gr
% here ends figure;
% 
% here starts figure with depth 45
% Polyline
0 slj
0 slc
15.000 slw
n 2102 3563 m
 1460 3355 l gs col15 s gr 
% Polyline
n 1460 4745 m
 818 4954 l gs col15 s gr 
% Polyline
45.000 slw
n 3600 2475 m
 3600 1125 l gs col0 s gr 
% Polyline
n 5319 6416 m
 4526 5324 l gs col0 s gr 
% Polyline
15.000 slw
n 5098 3563 m
 5740 3355 l gs col15 s gr 
% here ends figure;
% 
% here starts figure with depth 40
/Times-Roman ff 222.25 scf sf
5490 4545 m
gs 1 -1 sc (Sub2) dup sw pop 2 div neg 0 rm  col0 sh gr
/Times-Roman ff 222.25 scf sf
2520 2565 m
gs 1 -1 sc (Sub2) dup sw pop 2 div neg 0 rm  col0 sh gr
/Times-Roman ff 222.25 scf sf
3465 1575 m
gs 1 -1 sc (CPU1) dup sw pop neg 0 rm  col0 sh gr
/Times-Roman ff 222.25 scf sf
3465 2250 m
gs 1 -1 sc (CPU0) dup sw pop neg 0 rm  col0 sh gr
/Times-Roman ff 238.13 scf sf
4770 2565 m
gs 1 -1 sc (Sub1) dup sw pop 2 div neg 0 rm  col0 sh gr
/Times-Roman ff 222.25 scf sf
6120 3375 m
gs 1 -1 sc (Sub3) dup sw pop 2 div neg 0 rm  col0 sh gr
/Times-Roman ff 222.25 scf sf
1485 2655 m
gs 1 -1 sc (Sub3) dup sw pop 2 div neg 0 rm  col0 sh gr
/Times-Roman ff 222.25 scf sf
2295 5490 m
gs 1 -1 sc (Sub1) dup sw pop 2 div neg 0 rm  col0 sh gr
/Times-Roman ff 254.00 scf sf
2700 6525 m
gs 1 -1 sc (Sub4) dup sw pop 2 div neg 0 rm  col0 sh gr
% here ends figure;
pagefooter
showpage
%%Trailer
%EOF
